^D:\CASSA\POLYTECH\S6\C++\PROJET_C++\MATRICES\ALEXIS_ABDOULLAH_MATRICE\ALEXIS_ABDOULLAH_MATRICE\ALEXIS_ABDOULLAH_MATRICE.CPP
/c /ZI /JMC /nologo /W3 /WX- /diagnostics:classic /sdl /Od /Oy- /D WIN32 /D _DEBUG /D _CONSOLE /D _UNICODE /D UNICODE /Gm- /EHsc /RTC1 /MDd /GS /fp:precise /permissive- /Zc:wchar_t /Zc:forScope /Zc:inline /Fo"DEBUG\\" /Fd"DEBUG\VC141.PDB" /Gd /TP /analyze- /FC D:\CASSA\POLYTECH\S6\C++\PROJET_C++\MATRICES\ALEXIS_ABDOULLAH_MATRICE\ALEXIS_ABDOULLAH_MATRICE\ALEXIS_ABDOULLAH_MATRICE.CPP
^D:\CASSA\POLYTECH\S6\C++\PROJET_C++\MATRICES\ALEXIS_ABDOULLAH_MATRICE\ALEXIS_ABDOULLAH_MATRICE\CMATRICE.CPP
/c /ZI /JMC /nologo /W3 /WX- /diagnostics:classic /sdl /Od /Oy- /D WIN32 /D _DEBUG /D _CONSOLE /D _UNICODE /D UNICODE /Gm- /EHsc /RTC1 /MDd /GS /fp:precise /permissive- /Zc:wchar_t /Zc:forScope /Zc:inline /Fo"DEBUG\\" /Fd"DEBUG\VC141.PDB" /Gd /TP /analyze- /FC D:\CASSA\POLYTECH\S6\C++\PROJET_C++\MATRICES\ALEXIS_ABDOULLAH_MATRICE\ALEXIS_ABDOULLAH_MATRICE\CMATRICE.CPP
